%YAML 1.1
%TAG !u! tag:unity3d.com,2011:
--- !u!114 &11400000
MonoBehaviour:
  m_ObjectHideFlags: 0
  m_CorrespondingSourceObject: {fileID: 0}
  m_PrefabInstance: {fileID: 0}
  m_PrefabAsset: {fileID: 0}
  m_GameObject: {fileID: 0}
  m_Enabled: 1
  m_EditorHideFlags: 0
  m_Script: {fileID: 11500000, guid: 7c8cefc5426c9c0e1aa01091aa2b31f5, type: 3}
  m_Name: Aim Where Facing Then Rotate 2
  m_EditorClassIdentifier: 
  shouldShoot: 1
  rotate: {x: 0, y: -0.51877326, z: 0, w: 0.85491186}
