%YAML 1.1
%TAG !u! tag:unity3d.com,2011:
--- !u!114 &11400000
MonoBehaviour:
  m_ObjectHideFlags: 0
  m_CorrespondingSourceObject: {fileID: 0}
  m_PrefabInstance: {fileID: 0}
  m_PrefabAsset: {fileID: 0}
  m_GameObject: {fileID: 0}
  m_Enabled: 1
  m_EditorHideFlags: 0
  m_Script: {fileID: 11500000, guid: ebc8de8875fc19b2c893aeac1d5400b3, type: 3}
  m_Name: Repeat Bullet Patterns 2
  m_EditorClassIdentifier: 
  shouldShoot: 1
  repeatCount: 2
  bulletPatterns:
  - {fileID: 11400000, guid: cbd0d39565223e84eac4500327b419f0, type: 2}
