%YAML 1.1
%TAG !u! tag:unity3d.com,2011:
--- !u!21 &2100000
Material:
  serializedVersion: 8
  m_ObjectHideFlags: 0
  m_CorrespondingSourceObject: {fileID: 0}
  m_PrefabInstance: {fileID: 0}
  m_PrefabAsset: {fileID: 0}
  m_Name: Teleport Indicator
  m_Shader: {fileID: 10750, guid: 0000000000000000f000000000000000, type: 0}
  m_ValidKeywords: []
  m_InvalidKeywords:
  - _SURFACE_TYPE_TRANSPARENT
  m_LightmapFlags: 4
  m_EnableInstancingVariants: 0
  m_DoubleSidedGI: 0
  m_CustomRenderQueue: -1
  stringTagMap: {}
  disabledShaderPasses:
  - DepthOnly
  - SHADOWCASTER
  m_SavedProperties:
    serializedVersion: 3
    m_TexEnvs:
    - _BaseMap:
        m_Texture: {fileID: 0}
        m_Scale: {x: 1, y: 1}
        m_Offset: {x: 0, y: 0}
    - _MainTex:
        m_Texture: {fileID: 2800000, guid: ff9f3ee6ab2b64c49b80e5f6866ec414, type: 3}
        m_Scale: {x: 1, y: 1}
        m_Offset: {x: 0, y: 0}
    m_Ints: []
    m_Floats:
    - _AlphaClip: 0
    - _Blend: 0
    - _BlendOp: 0
    - _Cull: 2
    - _Cutoff: 0.5
    - _DstBlend: 10
    - _FadeIn: 1
    - _FadeModeIn: 0
    - _FadeModeOut: 0
    - _FadeOut: 1
    - _Gamma: 1
    - _IsUnlit: -80.32
    - _Lighting: 0.5
    - _OnlyTint: 0
    - _QueueOffset: 0
    - _SampleGI: 0
    - _SrcBlend: 5
    - _Surface: 1
    - _Unlit: 0
    - _ZWrite: 0
    m_Colors:
    - _BaseColor: {r: 1, g: 1, b: 1, a: 1}
    - _Color: {r: 1, g: 1, b: 1, a: 1}
    - _EmissionColor: {r: 0, g: 0, b: 0, a: 1}
    - _Fresnel: {r: 1.5, g: 1, b: 1, a: 1}
    - _SpecColor: {r: 0, g: 0, b: 0, a: 1}
    - _TintColor: {r: 1, g: 1, b: 1, a: 1}
  m_BuildTextureStacks: []
