%YAML 1.1
%TAG !u! tag:unity3d.com,2011:
--- !u!1386491679 &1
PresetManager:
  m_ObjectHideFlags: 0
  serializedVersion: 2
  m_DefaultPresets:
  - first:
      m_NativeTypeID: 2089858483
      m_ManagedTypePPtr: {fileID: 11500000, guid: f53f5fc499d31e44b9deee84d28a9ee8, type: 3}
      m_ManagedTypeFallback: 
    second:
    - m_Preset: {fileID: 2655988077585873504, guid: 95370f6343407c04ba6d1c39c86c93f3, type: 2}
      m_Filter: 
      m_Disabled: 0
  - first:
      m_NativeTypeID: 114
      m_ManagedTypePPtr: {fileID: 11500000, guid: b287cf63c86dfc54c8676517ff44a142, type: 3}
      m_ManagedTypeFallback: 
    second:
    - m_Preset: {fileID: 2655988077585873504, guid: b1cdda3863409c644ab67176e0f9bca1, type: 2}
      m_Filter: 
      m_Disabled: 0
  - first:
      m_NativeTypeID: 114
      m_ManagedTypePPtr: {fileID: 11500000, guid: c9e79a929e2afdb4dbbc25dabfdfe836, type: 3}
      m_ManagedTypeFallback: 
    second:
    - m_Preset: {fileID: 0}
      m_Filter: 
      m_Disabled: 0
